<?xml version="1.0" encoding="iso-8859-1"?>
<!-- Uploaded to: SVG Repo, www.svgrepo.com, Generator: SVG Repo Mixer Tools -->
<!DOCTYPE svg PUBLIC "-//W3C//DTD SVG 1.1//EN" "http://www.w3.org/Graphics/SVG/1.1/DTD/svg11.dtd">
<svg fill="#6353E8" version="1.1" id="Capa_1" xmlns="http://www.w3.org/2000/svg" xmlns:xlink="http://www.w3.org/1999/xlink" 
	 width="800px" height="800px" viewBox="0 0 32 32" xml:space="preserve">
<g>
	<g>
		<path d="M6.501,6.249c0.44,0.335,0.892,0.654,1.361,0.939C7.623,7.764,7.411,8.372,7.221,9h1.927
			c0.11-0.322,0.215-0.649,0.34-0.955C10.381,8.454,11.312,8.766,12.267,9h7.471c0.967-0.235,1.912-0.554,2.812-0.972
			c0.125,0.31,0.229,0.644,0.343,0.972h1.891c-0.189-0.629-0.4-1.235-0.641-1.812c0.471-0.285,0.924-0.604,1.36-0.939
			c0.84,0.818,1.572,1.743,2.179,2.751h2.688c-2.604-5.318-8.057-9-14.368-9C9.689,0,4.238,3.682,1.635,9h2.686
			C4.929,7.992,5.661,7.065,6.501,6.249z M24.109,5.073c-0.246,0.176-0.493,0.349-0.75,0.509c-0.319-0.587-0.666-1.144-1.041-1.646
			C22.95,4.266,23.544,4.651,24.109,5.073z M21.794,6.422c-0.808,0.371-1.64,0.67-2.496,0.88c-0.239-1.728-0.584-3.396-1.075-4.672
			C19.605,3.329,20.829,4.655,21.794,6.422z M15.82,2.379c0.061-0.001,0.12-0.008,0.182-0.008s0.121,0.007,0.182,0.008
			c0.438,0.717,0.965,2.507,1.354,5.229c-0.509,0.06-1.021,0.098-1.535,0.098c-0.517,0-1.028-0.038-1.535-0.098
			C14.855,4.886,15.382,3.096,15.82,2.379z M13.771,2.658c-0.485,1.272-0.827,2.927-1.065,4.645c-0.843-0.206-1.661-0.5-2.453-0.86
			C11.214,4.692,12.421,3.366,13.771,2.658z M9.684,3.936C9.31,4.438,8.965,4.996,8.642,5.582C8.386,5.423,8.139,5.25,7.893,5.074
			C8.459,4.651,9.052,4.266,9.684,3.936z"/>
		<path d="M25.503,25.752c-0.438-0.336-0.894-0.654-1.36-0.941c0.237-0.574,0.45-1.182,0.641-1.811h-1.891
			c-0.109,0.328-0.216,0.66-0.341,0.971c-0.901-0.418-1.848-0.734-2.813-0.971h-7.47c-0.955,0.234-1.885,0.547-2.778,0.955
			C9.364,23.648,9.26,23.32,9.149,23H7.223c0.189,0.629,0.401,1.236,0.64,1.812c-0.47,0.285-0.921,0.604-1.361,0.938
			C5.663,24.934,4.931,24.008,4.325,23H1.638c2.603,5.316,8.054,9,14.366,9c6.312,0,11.764-3.684,14.367-9h-2.688
			C27.075,24.008,26.343,24.934,25.503,25.752z M7.893,26.928c0.246-0.176,0.494-0.35,0.749-0.508
			c0.323,0.586,0.668,1.143,1.042,1.645C9.052,27.734,8.459,27.35,7.893,26.928z M10.251,25.559c0.792-0.356,1.61-0.653,2.453-0.858
			c0.238,1.719,0.58,3.368,1.065,4.645C12.421,28.635,11.214,27.307,10.251,25.559z M16.184,29.621
			c-0.061,0.002-0.12,0.008-0.182,0.008s-0.121-0.006-0.182-0.008c-0.438-0.717-0.966-2.508-1.354-5.229
			c0.507-0.06,1.019-0.099,1.535-0.099c0.517,0,1.028,0.039,1.536,0.099C17.146,27.113,16.622,28.904,16.184,29.621z M18.223,29.369
			c0.491-1.275,0.836-2.943,1.075-4.672c0.856,0.211,1.688,0.51,2.496,0.881C20.829,27.346,19.605,28.672,18.223,29.369z
			 M22.318,28.064c0.375-0.504,0.722-1.062,1.041-1.646c0.257,0.16,0.504,0.334,0.75,0.51C23.544,27.35,22.95,27.734,22.318,28.064z
			"/>
		<path d="M4.795,19.18l0.637-2.236c0.169-0.596,0.299-1.183,0.416-1.977h0.026c0.13,0.78,0.247,1.354,0.403,1.977l0.598,2.236
			h1.859l1.95-6.355H8.748l-0.546,2.521c-0.143,0.729-0.273,1.443-0.364,2.171H7.812c-0.13-0.729-0.299-1.441-0.468-2.158
			l-0.637-2.534h-1.56l-0.676,2.612c-0.156,0.623-0.338,1.353-0.468,2.08H3.977c-0.104-0.729-0.234-1.431-0.364-2.094l-0.507-2.601
			H1.09l1.846,6.357h1.859V19.18z"/>
		<path d="M18.314,15.344c-0.145,0.729-0.272,1.443-0.362,2.172h-0.027c-0.129-0.729-0.299-1.442-0.467-2.159l-0.64-2.534h-1.56
			l-0.676,2.612c-0.156,0.624-0.338,1.353-0.468,2.081h-0.026c-0.104-0.729-0.234-1.432-0.364-2.095l-0.507-2.601h-2.015
			l1.846,6.357h1.859l0.637-2.235c0.169-0.599,0.299-1.184,0.416-1.978h0.026c0.13,0.78,0.248,1.354,0.404,1.978l0.598,2.235h1.859
			l1.947-6.357h-1.938L18.314,15.344z"/>
		<path d="M28.43,15.344c-0.144,0.729-0.273,1.443-0.363,2.172h-0.025c-0.129-0.729-0.3-1.442-0.469-2.159l-0.637-2.534h-1.562
			l-0.677,2.612c-0.155,0.624-0.338,1.353-0.469,2.081h-0.024c-0.104-0.729-0.233-1.432-0.363-2.095l-0.508-2.601h-2.017
			l1.849,6.357h1.856l0.64-2.235c0.168-0.599,0.299-1.184,0.416-1.978h0.024c0.129,0.78,0.246,1.354,0.402,1.978l0.598,2.235h1.859
			l1.949-6.357h-1.938L28.43,15.344z"/>
	</g>
</g>
</svg>